ERROR: [PCU_MAINLOG]: Mat3x3: 
(2.000000, 0.500000, 0.300000)
(1.000000, 5.000000, 3.000000)
(0.100000, 2.000000, 3.000000)

ERROR: [PCU_MAINLOG]: Mat3x3: 
(2.000000, 0.500000, 0.300000)
(1.000000, 5.000000, 3.000000)
(0.100000, 2.000000, 3.000000)

ERROR: [PCU_MAINLOG]: Mat3x3: 
(2.000000, 0.500000, 0.300000)
(1.000000, 5.000000, 3.000000)
(0.100000, 2.000000, 3.000000)

ERROR: [PCU_MAINLOG]: Mat3x3: 
(2.000000, 0.500000, 0.300000)
(1.000000, 5.000000, 3.000000)
(0.100000, 2.000000, 3.000000)

